{
  "images" : [
    {
      "idiom" : "universal",
      "filename" : "ic_plus_round_add_product.png",
      "scale" : "1x"
    },
    {
      "idiom" : "universal",
      "filename" : "ic_plus_round_add_product@2x.png",
      "scale" : "2x"
    },
    {
      "idiom" : "universal",
      "filename" : "ic_plus_round_add_product@3x.png",
      "scale" : "3x"
    }
  ],
  "info" : {
    "version" : 1,
    "author" : "xcode"
  }
}